[{"username":"Peugeot","email":"66.232.79.164/6","experience":"苍","lvl":13.7060822},
{"username":"Lincoln","email":"218.235.255.45/31","experience":"胡","lvl":-6.8083456},
{"username":"Saturn","email":"233.234.218.102/13","experience":"鱼","lvl":40.76191},
{"username":"Pontiac","email":"94.31.135.155/15","experience":"富","lvl":27.4323703},
{"username":"Ford","email":"195.108.110.136/16","experience":"严","lvl":40.5854765},
{"username":"Jaguar","email":"61.132.255.154/1","experience":"薛","lvl":29.82},
{"username":"Toyota","email":"176.48.10.242/7","experience":"傅","lvl":-0.9452342},
{"username":"Cadillac","email":"147.93.53.32/15","experience":"申","lvl":27.320917},
{"username":"Ford","email":"59.60.193.214/24","experience":"纪","lvl":60.1555962},
{"username":"Dodge","email":"101.94.167.145/4","experience":"夔","lvl":21.6936233}]